[
  {
    "definitions_word_en": "each of the small, thin horny or bony plates protecting the skin of fish and reptiles, typically overlapping one another.",
    "id_lesson": "scale_s",
    "definitions_ex_en": "",
    "definitions_ex_vn": "",
    "definitions_type_word": "noun"
  },
  {
    "definitions_word_en": "a thick, dry flake of skin.",
    "id_lesson": "scale_s",
    "definitions_ex_en": "",
    "definitions_ex_vn": "",
    "definitions_type_word": "noun"
  },
  {
    "definitions_word_en": "a flaky covering or deposit.",
    "id_lesson": "scale_s",
    "definitions_ex_en": "",
    "definitions_ex_vn": "",
    "definitions_type_word": "noun"
  },
  {
    "definitions_word_en": "an instrument for weighing, originally a simple balance ( a pair of scales ) but now usually a device with an electronic or other internal weighing mechanism.",
    "id_lesson": "scale_s",
    "definitions_ex_en": "bathroom scales",
    "definitions_ex_vn": "Cân phòng tắm",
    "definitions_type_word": "noun"
  },
  {
    "definitions_word_en": "a graduated range of values forming a standard system for measuring or grading something.",
    "id_lesson": "scale_s",
    "definitions_ex_en": "company employees have hit the top of their pay scales",
    "definitions_ex_vn": "Nhân viên công ty đã đạt đến đỉnh của quy mô lương của họ",
    "definitions_type_word": "noun"
  },
  {
    "definitions_word_en": "the relative size or extent of something.",
    "id_lesson": "scale_s",
    "definitions_ex_en": "no one foresaw the scale of the disaster",
    "definitions_ex_vn": "không ai thấy trước quy mô của thảm họa",
    "definitions_type_word": "noun"
  },
  {
    "definitions_word_en": "an arrangement of the notes in any system of music in ascending or descending order of pitch.",
    "id_lesson": "scale_s",
    "definitions_ex_en": "the scale of C major",
    "definitions_ex_vn": "quy mô của c chính",
    "definitions_type_word": "noun"
  },
  {
    "definitions_word_en": "a system of numerical notation in which the value of a digit depends upon its position in the number, successive positions representing successive powers of a fixed base.",
    "id_lesson": "scale_s",
    "definitions_ex_en": "the conversion of the number to the binary scale",
    "definitions_ex_vn": "Việc chuyển đổi số thành quy mô nhị phân",
    "definitions_type_word": "noun"
  },
  {
    "definitions_word_en": "the range of exposures over which a photographic material will give an acceptable variation in density.",
    "id_lesson": "scale_s",
    "definitions_ex_en": "",
    "definitions_ex_vn": "",
    "definitions_type_word": "noun"
  },
  {
    "definitions_word_en": "remove scale or scales from.",
    "id_lesson": "scale_s",
    "definitions_ex_en": "he scales the fish and removes the innards",
    "definitions_ex_vn": "anh ta vảy cá và loại bỏ các bên trong",
    "definitions_type_word": "verb"
  },
  {
    "definitions_word_en": "(especially of the skin) form scales.",
    "id_lesson": "scale_s",
    "definitions_ex_en": "",
    "definitions_ex_vn": "",
    "definitions_type_word": "verb"
  },
  {
    "definitions_word_en": "weigh a specified weight.",
    "id_lesson": "scale_s",
    "definitions_ex_en": "some men scaled less than ninety pounds",
    "definitions_ex_vn": "Một số đàn ông quy mô ít hơn chín mươi pounds",
    "definitions_type_word": "verb"
  },
  {
    "definitions_word_en": "climb up or over (something high and steep).",
    "id_lesson": "scale_s",
    "definitions_ex_en": "thieves scaled an 8-foot fence",
    "definitions_ex_vn": "Kẻ trộm thu thành một hàng rào 8 feet",
    "definitions_type_word": "verb"
  },
  {
    "definitions_word_en": "represent in proportional dimensions; reduce or increase in size according to a common scale.",
    "id_lesson": "scale_s",
    "definitions_ex_en": "",
    "definitions_ex_vn": "",
    "definitions_type_word": "verb"
  }
]