[
  {
    "definitions_word_en": "the opening in the lower part of the human face, surrounded by the lips, through which food is taken in and from which speech and other sounds are emitted.",
    "id_lesson": "mouth_m",
    "definitions_ex_en": "Ben stood transfixed with disbelief, his mouth open",
    "definitions_ex_vn": "Ben đứng bị hoài nghi với sự hoài nghi, miệng anh mở ra",
    "definitions_type_word": "noun"
  },
  {
    "definitions_word_en": "an opening or entrance to a structure that is hollow, concave, or almost completely enclosed.",
    "id_lesson": "mouth_m",
    "definitions_ex_en": "standing before the mouth of a cave",
    "definitions_ex_vn": "đứng trước miệng một hang động",
    "definitions_type_word": "noun"
  },
  {
    "definitions_word_en": "say (something dull or unoriginal), especially in a pompous or affected way.",
    "id_lesson": "mouth_m",
    "definitions_ex_en": "this clergyman mouths platitudes in breathy, soothing tones",
    "definitions_ex_vn": "Giáo sĩ giáo sĩ này nói theo tinh thể trong hơi thở, êm dịu",
    "definitions_type_word": "verb"
  },
  {
    "definitions_word_en": "take in or touch with the mouth.",
    "id_lesson": "mouth_m",
    "definitions_ex_en": "puppies may mouth each other\u0027s collars during play",
    "definitions_ex_vn": "Chó con có thể miệng vòng cổ của nhau trong khi chơi",
    "definitions_type_word": "verb"
  }
]