[
  {
    "definitions_word_en": "one of a set of explicit or understood regulations or principles governing conduct within a particular activity or sphere.",
    "id_lesson": "rule_r",
    "definitions_ex_en": "the rules of the game were understood",
    "definitions_ex_vn": "Các quy tắc của trò chơi đã được hiểu",
    "definitions_type_word": "noun"
  },
  {
    "definitions_word_en": "control of or dominion over an area or people.",
    "id_lesson": "rule_r",
    "definitions_ex_en": "the revolution brought an end to British rule",
    "definitions_ex_vn": "Cuộc cách mạng đã kết thúc theo quy định của Anh",
    "definitions_type_word": "noun"
  },
  {
    "definitions_word_en": "the normal or customary state of things.",
    "id_lesson": "rule_r",
    "definitions_ex_en": "such accidents are the exception rather than the rule",
    "definitions_ex_vn": "Những tai nạn như vậy là ngoại lệ chứ không phải quy tắc",
    "definitions_type_word": "noun"
  },
  {
    "definitions_word_en": "a strip of wood or other rigid material used for measuring length or marking straight lines; a ruler.",
    "id_lesson": "rule_r",
    "definitions_ex_en": "",
    "definitions_ex_vn": "",
    "definitions_type_word": "noun"
  },
  {
    "definitions_word_en": "exercise ultimate power or authority over (an area and its people).",
    "id_lesson": "rule_r",
    "definitions_ex_en": "the region today is ruled by elected politicians",
    "definitions_ex_vn": "Khu vực hôm nay được cai trị bởi các chính trị gia được bầu",
    "definitions_type_word": "verb"
  },
  {
    "definitions_word_en": "pronounce authoritatively and legally to be the case.",
    "id_lesson": "rule_r",
    "definitions_ex_en": "a federal court ruled that he was unfairly dismissed from his job",
    "definitions_ex_vn": "Một tòa án liên bang đã phán quyết rằng anh ta bị loại khỏi công việc của mình",
    "definitions_type_word": "verb"
  },
  {
    "definitions_word_en": "make parallel lines across (paper).",
    "id_lesson": "rule_r",
    "definitions_ex_en": "rule the pages horizontally and print the information within the rules.",
    "definitions_ex_vn": "Quy tắc các trang theo chiều ngang và in thông tin trong các quy tắc.",
    "definitions_type_word": "verb"
  }
]