[
  {
    "definitions_word_en": "the relative social, professional, or other standing of someone or something.",
    "id_lesson": "status_s",
    "definitions_ex_en": "an improvement in the status of women",
    "definitions_ex_vn": "một sự cải thiện về tình trạng của phụ nữ",
    "definitions_type_word": "noun"
  },
  {
    "definitions_word_en": "the position of affairs at a particular time, especially in political or commercial contexts.",
    "id_lesson": "status_s",
    "definitions_ex_en": "an update on the status of the bill",
    "definitions_ex_vn": "một bản cập nhật về trạng thái của hóa đơn",
    "definitions_type_word": "noun"
  }
]