[
  {
    "definitions_word_en": "(of an activity or occasion) giving delight or pleasure.",
    "id_lesson": "enjoyable_e",
    "definitions_ex_en": "the decision is aimed at making shopping more enjoyable",
    "definitions_ex_vn": "Quyết định này nhằm mục đích mua sắm thú vị hơn",
    "definitions_type_word": "adjective"
  }
]