[
  {
    "definitions_word_en": "not guilty of a crime or offense.",
    "id_lesson": "innocent_i",
    "definitions_ex_en": "the arbitrary execution of an innocent man",
    "definitions_ex_vn": "việc thực hiện độc đoán của một người đàn ông vô tội",
    "definitions_type_word": "adjective"
  },
  {
    "definitions_word_en": "not responsible for or directly involved in an event yet suffering its consequences.",
    "id_lesson": "innocent_i",
    "definitions_ex_en": "an innocent bystander",
    "definitions_ex_vn": "một người ngoài cuộc vô tội",
    "definitions_type_word": "adjective"
  },
  {
    "definitions_word_en": "free from moral wrong; not corrupted.",
    "id_lesson": "innocent_i",
    "definitions_ex_en": "an innocent child",
    "definitions_ex_vn": "một đứa trẻ vô tội",
    "definitions_type_word": "adjective"
  },
  {
    "definitions_word_en": "not intended to cause harm or offense; harmless.",
    "id_lesson": "innocent_i",
    "definitions_ex_en": "an innocent mistake",
    "definitions_ex_vn": "một sai lầm vô tội",
    "definitions_type_word": "adjective"
  },
  {
    "definitions_word_en": "a pure, guileless, or naive person.",
    "id_lesson": "innocent_i",
    "definitions_ex_en": "she was an innocent compared with this man",
    "definitions_ex_vn": "Cô ấy là một người vô tội so với người đàn ông này",
    "definitions_type_word": "noun"
  },
  {
    "definitions_word_en": "a person involved by chance in a situation, especially a victim of crime or war.",
    "id_lesson": "innocent_i",
    "definitions_ex_en": "",
    "definitions_ex_vn": "",
    "definitions_type_word": "noun"
  }
]